
2017.22.10 03:22:03 Total Records recived:2000 Files writen to database:875 Files not written:1125

2017.23.10 03:23:03 Total Records recived:2000 Files writen to database:875 Files not written:1125

2017.14.13 11:14:19 Total Records recived:2000 Files writen to database:875 Files not written:1125

2017.18.13 11:18:34 Total Records recived:2000 Files writen to database:875 Files not written:1125

2017.19.13 11:19:28 Total Records recived:2000 Files writen to database:875 Files not written:1125

2017.42.13 11:42:50 Total Records recived:2000 Files writen to database:875 Files not written:1125

2017.47.13 11:47:50 Total Records recived:2000 Files writen to database:875 Files not written:1125

2017.17.13 12:17:19 Total Records recived:2000 Files writen to database:875 Files not written:1125

2017.19.13 12:19:36 Total Records recived:2000 Files writen to database:875 Files not written:1125

2017.53.13 02:53:36 Total Records recived:2000 Files writen to database:875 Files not written:1125

2017.54.13 02:54:02 Total Records recived:6001 Files writen to database:2657 Files not written:3344

2017.20.13 03:20:18 Total Records recived:6001 Files writen to database:2657 Files not written:3344

2017.43.13 03:43:52 Total Records recived:6001 Files writen to database:2657 Files not written:3344

2017.16.13 04:16:53 Total Records recived:6001 Files writen to database:2657 Files not written:3344

2017.19.13 04:19:04 Total Records recived:6001 Files writen to database:2657 Files not written:3344

2017.27.13 04:27:51 Total Records recived:6001 Files writen to database:2657 Files not written:3344

2017.27.17 03:27:58 Total Records recived:6001 Files writen to database:2532 Files not written:3469

2017.46.17 03:46:08 Total Records recived:6001 Files writen to database:2532 Files not written:3469

